{
  "type": "service_account",
  "project_id": "padhaku-bd3c2",
  "private_key_id": "c713a476233e1a795750d18389fc696045e5fa53",
  "private_key": "-----BEGIN PRIVATE KEY-----\nMIIEvAIBADANBgkqhkiG9w0BAQEFAASCBKYwggSiAgEAAoIBAQCn5U69HuvLMXGM\nzqOH8iCmjgPUXQ5S74HvVDR8fuXtywEDhmI0YNefL3UBohmw1wzBIzNpqAwmHTjm\neKKRyRw33/RN43Qf35ajUup2G0oIWBSR/o2NOqSa1O5n02hUBbv5HdagGHjU9IY0\nS5Etn3doIoOg8eWkGp1pLpTUOfkkqjrJYcj5h4T92c3EpCu5pdqeFpahv22emZrN\nGJlD7e45PK5EeehcA6o+wkb0UPdw5uQEQpG+BB0AIj3kI8t3tGOCWl30N3CsfQkL\n9pCwpm0TV35lBWVg7FG8vBZAMyzv3iOSbvdF+3TJKeb6XZ2SbHP/SkEDDAo38DQX\n24teIQLlAgMBAAECggEATnd/7ilWYBeSjxFAIlgJ5G144rY+7IndOyIqiYixIwp+\nRcx3dy1PeKkwUPwWb6yB3H38GEQesW1021nD+Mh59K8pOYG1EvRnLZuh0mL8nZu0\nuWqzcy7WITqk1UdbefFYIZxNY3MsfbJuSmCK0Dy4DKYcyIplHeYGbVME4Y7ansRi\ndSZNJC+wOYjpv4PdPGSqdhRqlggmiL+hoHoWNNrctr1erImm1CKQGhbBfps6DUCU\nEddQW1QyfM6fpId+ZIJCPd3m9u7BrMl6eFx9BLeoBz8oJ/+zV6BeWuwXdIdaHoo4\n2HKOsd1DxOy/d3bSysNndwypzkVzxWJNvkmmhYzh/QKBgQDTPg5e3qz8wxong7gj\nb6EaDScSqAEYCTmW5N2bmFzHBlPtE7muCS6Y5ZoN1HBJXKMnNzQ1crUFjoHa8A/7\nijoYWTk4URaN1Zc0GjjXvb8xEB/BfSue2T6ca9YIpYOMdq76IG5xtmeIcb68RmtF\nbTjm7lfNeRe3MzQ5pW4/huiO3wKBgQDLeBiLxowHjgcKuP9iKVsgPkzYQ19Dv4gq\nFgS5ddUO0DMN/EBBB04oZx3HbSaKL31wZ4+CE2OA6iHu5mkoR/C0a+JlWA7z8aRz\n4hQRFUytwBNcMWDFxmiP2kS9Ir2c5aLPQYNsytQkONtry0FEg/9JNh9vj5xUdz91\nWQghqgIauwKBgH7owF90rj7ow/TLaLw5W3M4RaoqrwWOvT+PXigVgF+9yHwdJqeN\nMqZ/Am+empsogYiU3NPjhyfAdvle0mtPnxlzuTHBXah2kvGlc1MB1zSVuE5ZcfRs\nFfaJvrvRHFguEW+KPnAoosjRdULNl7LNLKtos+1o+7t/krezUKnv1hXHAoGAdXxp\nH/yLSql143ki7blXhuyyToXIckQcCcEhBT3GwoDxmfe32lSviqDQDyE1icEWO1tw\n//jWEdAfu+SLf9jaYjORTFdmevFitg8q6xpTZlhsVWWlrU19fuLXoiZ3OitWsTnw\n+1a63BeAi2OX0kotlEaOLErOR+97UvUPvvB9upUCgYAhuODX8khqyMGFo93RhQk5\nhAyweH7XXgqZSEprZ6ifKUK4l+uJD57/4m3QrOayf7nnnFD33EY81q5UEbRBD9yi\nuEda5QkjK6u7pUWghDKjOcqzJblxggpAWj0RJ4YdMMoiFZWIO5XL1A9ilUPyzWeT\nTZoRhHEo7RLoATVe24uz8A==\n-----END PRIVATE KEY-----\n",
  "client_email": "firebase-adminsdk-z7155@padhaku-bd3c2.iam.gserviceaccount.com",
  "client_id": "112974148947850141088",
  "auth_uri": "https://accounts.google.com/o/oauth2/auth",
  "token_uri": "https://oauth2.googleapis.com/token",
  "auth_provider_x509_cert_url": "https://www.googleapis.com/oauth2/v1/certs",
  "client_x509_cert_url": "https://www.googleapis.com/robot/v1/metadata/x509/firebase-adminsdk-z7155%40padhaku-bd3c2.iam.gserviceaccount.com"
}
